{
	"rects":[
	{
		"x": 100,
		"y": 300,
		"width": 50,
		"height": 50,
		"r": 255,
		"g": 0,
		"b": 0,
		"center": false
	},
	{
		"x": 400,
		"y": 100,
		"width": 300,
		"height": 50,
		"r": 0,
		"g": 0,
		"b": 255,
		"center": true
	}
	]
}